{"name":"Obtener lista de usuario de la pagina dos","id":"obtener-lista-de-usuarios;obtener-lista-de-usuario-de-la-pagina-dos","testSteps":[{"number":1,"description":"Example: {Url\u003dhttps://reqres.in/, EndPoint\u003dapi/users?page\u003d2, Estado\u003d200}","duration":5886,"startTime":"2022-11-24T09:23:46.993-05:00[America/Bogota]","result":"SUCCESS","precondition":false,"level":0,"children":[{"number":2,"description":"Dado que me encuentro en la url https://reqres.in/ de reqres","duration":173,"startTime":"2022-11-24T09:23:47.040-05:00[America/Bogota]","result":"SUCCESS","precondition":false,"level":1},{"number":3,"description":"Cuando realice la solicitud para obtener la lista de usuarios en api/users?page\u003d2","duration":5496,"startTime":"2022-11-24T09:23:47.219-05:00[America/Bogota]","result":"SUCCESS","precondition":false,"level":1,"children":[{"number":4,"description":" get rest","duration":5330,"startTime":"2022-11-24T09:23:47.382-05:00[America/Bogota]","result":"SUCCESS","precondition":false,"level":2,"children":[{"number":5,"description":" executes a GET on the resource api/users?page\u003d2","duration":5202,"startTime":"2022-11-24T09:23:47.504-05:00[America/Bogota]","result":"SUCCESS","precondition":false,"level":3,"children":[{"number":6,"description":"GET https://reqres.in/api/users?page\u003d2\r","duration":1,"startTime":"2022-11-24T09:23:52.705-05:00[America/Bogota]","result":"SUCCESS","restQuery":{"method":"GET","path":"https://reqres.in/api/users?page\u003d2\r","content":"\r","contentType":"application/json","requestHeaders":"Accept\u003d*/*\r\n\t\t\t\tContent-Type\u003dapplication/json; charset\u003dUTF-8\r","requestCookies":"\r","responseHeaders":"Date: Thu, 24 Nov 2022 14:23:53 GMT\r\nContent-Type: application/json; charset\u003dutf-8\r\nTransfer-Encoding: chunked\r\nConnection: keep-alive\r\nX-Powered-By: Express\r\nAccess-Control-Allow-Origin: *\r\nEtag: W/\"406-ut0vzoCuidvyMf8arZpMpJ6ZRDw\"\r\nVia: 1.1 vegur\r\nCache-Control: max-age\u003d14400\r\nCF-Cache-Status: HIT\r\nAge: 1317\r\nReport-To: {\"endpoints\":[{\"url\":\"https:\\/\\/a.nel.cloudflare.com\\/report\\/v3?s\u003dTcxQm9Zc1ZAttbYJMfz8cM%2Bi1OeHSvfNvZ6d1Lzqxz%2FwPpXOgLiWqy1sPMBSxsghUqa2k3x%2F7O99oh%2FrSa%2BG35Tjsxog8ZhPuDLbE9%2BokUZu17KCGVVGDV33LA%3D%3D\"}],\"group\":\"cf-nel\",\"max_age\":604800}\r\nNEL: {\"success_fraction\":0,\"report_to\":\"cf-nel\",\"max_age\":604800}\r\nVary: Accept-Encoding\r\nServer: cloudflare\r\nCF-RAY: 76f2ce197dfb74bb-IAD\r\nContent-Encoding: gzip\r","responseCookies":"\r","responseBody":"{\n    \"page\": 2,\n    \"per_page\": 6,\n    \"total\": 12,\n    \"total_pages\": 2,\n    \"data\": [\n        {\n            \"id\": 7,\n            \"email\": \"michael.lawson@reqres.in\",\n            \"first_name\": \"Michael\",\n            \"last_name\": \"Lawson\",\n            \"avatar\": \"https://reqres.in/img/faces/7-image.jpg\"\n        },\n        {\n            \"id\": 8,\n            \"email\": \"lindsay.ferguson@reqres.in\",\n            \"first_name\": \"Lindsay\",\n            \"last_name\": \"Ferguson\",\n            \"avatar\": \"https://reqres.in/img/faces/8-image.jpg\"\n        },\n        {\n            \"id\": 9,\n            \"email\": \"tobias.funke@reqres.in\",\n            \"first_name\": \"Tobias\",\n            \"last_name\": \"Funke\",\n            \"avatar\": \"https://reqres.in/img/faces/9-image.jpg\"\n        },\n        {\n            \"id\": 10,\n            \"email\": \"byron.fields@reqres.in\",\n            \"first_name\": \"Byron\",\n            \"last_name\": \"Fields\",\n            \"avatar\": \"https://reqres.in/img/faces/10-image.jpg\"\n        },\n        {\n            \"id\": 11,\n            \"email\": \"george.edwards@reqres.in\",\n            \"first_name\": \"George\",\n            \"last_name\": \"Edwards\",\n            \"avatar\": \"https://reqres.in/img/faces/11-image.jpg\"\n        },\n        {\n            \"id\": 12,\n            \"email\": \"rachel.howell@reqres.in\",\n            \"first_name\": \"Rachel\",\n            \"last_name\": \"Howell\",\n            \"avatar\": \"https://reqres.in/img/faces/12-image.jpg\"\n        }\n    ],\n    \"support\": {\n        \"url\": \"https://reqres.in/#support-heading\",\n        \"text\": \"To keep ReqRes free, contributions towards server costs are appreciated!\"\n    }\n}","statusCode":200},"precondition":false,"level":4}]}]}]},{"number":7,"description":"Entonces podre observar el estado 200 de la solicitud","duration":159,"startTime":"2022-11-24T09:23:52.718-05:00[America/Bogota]","result":"SUCCESS","precondition":false,"level":1,"children":[{"number":8,"description":"Then codigo estado","duration":5,"startTime":"2022-11-24T09:23:52.869-05:00[America/Bogota]","result":"SUCCESS","precondition":false,"level":2}]}]}],"userStory":{"id":"obtener-lista-de-usuarios","storyName":"Obtener lista de usuarios","path":"src/test/resources/features/ListaUsuarios.feature","type":"feature"},"featureTag":{"name":"Features/Obtener lista de usuarios","type":"feature","displayName":"Features/Obtener lista de usuarios"},"title":"Obtener lista de usuario de la pagina dos","tags":[{"name":"Obtener lista de usuarios","type":"feature","displayName":"Obtener lista de usuarios"}],"startTime":"2022-11-24T09:23:46.856-05:00[America/Bogota]","duration":6028,"projectKey":"","isManualTestingUpToDate":false,"dataTable":{"headers":["Url","EndPoint","Estado"],"rows":[{"values":["https://reqres.in/","api/users?page\u003d2","200"],"result":"SUCCESS"}],"predefinedRows":true,"scenarioOutline":"Dado que me encuentro en la url \u003cUrl\u003e de reqres\n\rCuando realice la solicitud para obtener la lista de usuarios en \u003cEndPoint\u003e\n\rEntonces podre observar el estado \u003cEstado\u003e de la solicitud\n\r","dataSetDescriptors":[{"startRow":0,"rowCount":0,"name":""}]},"manual":false,"testSource":"Cucumber","actors":[{"name":"","can":["browse the web","call an API at https://reqres.in/"]}],"result":"SUCCESS","scenarioOutline":"Dado que me encuentro en la url \u003cUrl\u003e de reqres\r\nCuando realice la solicitud para obtener la lista de usuarios en \u003cEndPoint\u003e\r\nEntonces podre observar el estado \u003cEstado\u003e de la solicitud"}