{"name":"Obtener lista de recursos","id":"obtener-lista-de-recursos;obtener-lista-de-recursos","testSteps":[{"number":1,"description":"Example: {Url\u003dhttps://reqres.in/, EndPoint\u003dapi/unknown, Estado\u003d200}","duration":6304,"startTime":"2022-11-24T09:32:58.603-05:00[America/Bogota]","result":"SUCCESS","precondition":false,"level":0,"children":[{"number":2,"description":"Dado que me encuentro en la url https://reqres.in/ de reqres","duration":157,"startTime":"2022-11-24T09:32:58.653-05:00[America/Bogota]","result":"SUCCESS","precondition":false,"level":1},{"number":3,"description":"Cuando realice la solicitud para obtener la lista de recursos en api/unknown","duration":5921,"startTime":"2022-11-24T09:32:58.824-05:00[America/Bogota]","result":"SUCCESS","precondition":false,"level":1,"children":[{"number":4,"description":" get rest","duration":5763,"startTime":"2022-11-24T09:32:58.980-05:00[America/Bogota]","result":"SUCCESS","precondition":false,"level":2,"children":[{"number":5,"description":" executes a GET on the resource api/unknown","duration":5633,"startTime":"2022-11-24T09:32:59.103-05:00[America/Bogota]","result":"SUCCESS","precondition":false,"level":3,"children":[{"number":6,"description":"GET https://reqres.in/api/unknown\r","duration":1,"startTime":"2022-11-24T09:33:04.735-05:00[America/Bogota]","result":"SUCCESS","restQuery":{"method":"GET","path":"https://reqres.in/api/unknown\r","content":"\r","contentType":"application/json","requestHeaders":"Accept\u003d*/*\r\n\t\t\t\tContent-Type\u003dapplication/json; charset\u003dUTF-8\r","requestCookies":"\r","responseHeaders":"Date: Thu, 24 Nov 2022 14:33:05 GMT\r\nContent-Type: application/json; charset\u003dutf-8\r\nTransfer-Encoding: chunked\r\nConnection: keep-alive\r\nX-Powered-By: Express\r\nAccess-Control-Allow-Origin: *\r\nEtag: W/\"2c1-N6Rqerxquq2kgQhL51EiSg4x0R8\"\r\nVia: 1.1 vegur\r\nCache-Control: max-age\u003d14400\r\nCF-Cache-Status: HIT\r\nAge: 1266\r\nReport-To: {\"endpoints\":[{\"url\":\"https:\\/\\/a.nel.cloudflare.com\\/report\\/v3?s\u003dekQzP9iSHTcS7G4SoHbjRHC8%2BDK6R7QogbKpPrbAitGOqm6eByG7ajH0IXYEn0Bzuz0mtB6cI07sbDXzPYQmMV2mlx6yzNtBhzKdBuYO5qq8P0XaxcRubT%2Bt8g%3D%3D\"}],\"group\":\"cf-nel\",\"max_age\":604800}\r\nNEL: {\"success_fraction\":0,\"report_to\":\"cf-nel\",\"max_age\":604800}\r\nVary: Accept-Encoding\r\nServer: cloudflare\r\nCF-RAY: 76f2db93abea9c7f-IAD\r\nContent-Encoding: gzip\r","responseCookies":"\r","responseBody":"{\n    \"page\": 1,\n    \"per_page\": 6,\n    \"total\": 12,\n    \"total_pages\": 2,\n    \"data\": [\n        {\n            \"id\": 1,\n            \"name\": \"cerulean\",\n            \"year\": 2000,\n            \"color\": \"#98B2D1\",\n            \"pantone_value\": \"15-4020\"\n        },\n        {\n            \"id\": 2,\n            \"name\": \"fuchsia rose\",\n            \"year\": 2001,\n            \"color\": \"#C74375\",\n            \"pantone_value\": \"17-2031\"\n        },\n        {\n            \"id\": 3,\n            \"name\": \"true red\",\n            \"year\": 2002,\n            \"color\": \"#BF1932\",\n            \"pantone_value\": \"19-1664\"\n        },\n        {\n            \"id\": 4,\n            \"name\": \"aqua sky\",\n            \"year\": 2003,\n            \"color\": \"#7BC4C4\",\n            \"pantone_value\": \"14-4811\"\n        },\n        {\n            \"id\": 5,\n            \"name\": \"tigerlily\",\n            \"year\": 2004,\n            \"color\": \"#E2583E\",\n            \"pantone_value\": \"17-1456\"\n        },\n        {\n            \"id\": 6,\n            \"name\": \"blue turquoise\",\n            \"year\": 2005,\n            \"color\": \"#53B0AE\",\n            \"pantone_value\": \"15-5217\"\n        }\n    ],\n    \"support\": {\n        \"url\": \"https://reqres.in/#support-heading\",\n        \"text\": \"To keep ReqRes free, contributions towards server costs are appreciated!\"\n    }\n}","statusCode":200},"precondition":false,"level":4}]}]}]},{"number":7,"description":"Entonces podre observar el estado 200 de la solicitud","duration":157,"startTime":"2022-11-24T09:33:04.747-05:00[America/Bogota]","result":"SUCCESS","precondition":false,"level":1,"children":[{"number":8,"description":"Then codigo estado","duration":7,"startTime":"2022-11-24T09:33:04.894-05:00[America/Bogota]","result":"SUCCESS","precondition":false,"level":2}]}]}],"userStory":{"id":"obtener-lista-de-recursos","storyName":"Obtener lista de recursos","path":"src/test/resources/features/ListaRecursos.feature","type":"feature"},"featureTag":{"name":"Features/Obtener lista de recursos","type":"feature","displayName":"Features/Obtener lista de recursos"},"title":"Obtener lista de recursos","tags":[{"name":"Obtener lista de recursos","type":"feature","displayName":"Obtener lista de recursos"}],"startTime":"2022-11-24T09:32:58.456-05:00[America/Bogota]","duration":6456,"projectKey":"","isManualTestingUpToDate":false,"dataTable":{"headers":["Url","EndPoint","Estado"],"rows":[{"values":["https://reqres.in/","api/unknown","200"],"result":"SUCCESS"}],"predefinedRows":true,"scenarioOutline":"Dado que me encuentro en la url \u003cUrl\u003e de reqres\n\rCuando realice la solicitud para obtener la lista de recursos en \u003cEndPoint\u003e\n\rEntonces podre observar el estado \u003cEstado\u003e de la solicitud\n\r","dataSetDescriptors":[{"startRow":0,"rowCount":0,"name":""}]},"manual":false,"testSource":"Cucumber","actors":[{"name":"","can":["browse the web","call an API at https://reqres.in/"]}],"result":"SUCCESS","scenarioOutline":"Dado que me encuentro en la url \u003cUrl\u003e de reqres\r\nCuando realice la solicitud para obtener la lista de recursos en \u003cEndPoint\u003e\r\nEntonces podre observar el estado \u003cEstado\u003e de la solicitud"}